{
	"info": {
		"_postman_id": "753813cc-2d63-4125-a34b-24709dda6f76",
		"name": "WebJump",
		"schema": "https://schema.getpostman.com/json/collection/v2.1.0/collection.json"
	},
	"item": [
		{
			"name": "Categorias",
			"item": [
				{
					"name": "Criar Categoria",
					"request": {
						"method": "POST",
						"header": [],
						"body": {
							"mode": "raw",
							"raw": "{\n    \"nome\": \"Categoria 6\",\n    \"codigo\": \"096\"\n}",
							"options": {
								"raw": {
									"language": "json"
								}
							}
						},
						"url": {
							"raw": "localhost:8080/v1/categorias",
							"host": [
								"localhost"
							],
							"port": "8080",
							"path": [
								"v1",
								"categorias"
							]
						}
					},
					"response": []
				},
				{
					"name": "Buscar Categoria",
					"request": {
						"method": "GET",
						"header": [],
						"url": {
							"raw": "localhost:8080/v1/categorias",
							"host": [
								"localhost"
							],
							"port": "8080",
							"path": [
								"v1",
								"categorias"
							]
						}
					},
					"response": []
				},
				{
					"name": "Alterar Categoria",
					"request": {
						"method": "PUT",
						"header": [],
						"body": {
							"mode": "raw",
							"raw": "{\n    \"nome\": \"Categoria 8\"\n}",
							"options": {
								"raw": {
									"language": "json"
								}
							}
						},
						"url": {
							"raw": "localhost:8080/v1/categorias/095",
							"host": [
								"localhost"
							],
							"port": "8080",
							"path": [
								"v1",
								"categorias",
								"095"
							]
						}
					},
					"response": []
				},
				{
					"name": "Remover Categoria",
					"request": {
						"method": "DELETE",
						"header": [],
						"url": {
							"raw": "localhost:8080/v1/categorias/095",
							"host": [
								"localhost"
							],
							"port": "8080",
							"path": [
								"v1",
								"categorias",
								"095"
							]
						}
					},
					"response": []
				}
			]
		},
		{
			"name": "Produtos",
			"item": [
				{
					"name": "Criar Produtos",
					"request": {
						"method": "POST",
						"header": [],
						"body": {
							"mode": "raw",
							"raw": "{\n    \"nome\": \"Produto 7\",\n    \"SKU\": \"00007\",\n    \"preco\": 15.23,\n    \"descricao\": \"Produto simples 1\",\n    \"quantidade\": 12,\n    \"categorias\": [\"Categoria 1\", \"Categoria 2\"]\n}",
							"options": {
								"raw": {
									"language": "json"
								}
							}
						},
						"url": {
							"raw": "localhost:8080/v1/produtos",
							"host": [
								"localhost"
							],
							"port": "8080",
							"path": [
								"v1",
								"produtos"
							]
						}
					},
					"response": []
				},
				{
					"name": "Buscar Produtos",
					"request": {
						"method": "GET",
						"header": [],
						"url": {
							"raw": "localhost:8080/v1/produtos",
							"host": [
								"localhost"
							],
							"port": "8080",
							"path": [
								"v1",
								"produtos"
							]
						}
					},
					"response": []
				},
				{
					"name": "Buscar produto por SKU",
					"request": {
						"method": "GET",
						"header": [],
						"url": {
							"raw": "localhost:8080/v1/produtos/00002",
							"host": [
								"localhost"
							],
							"port": "8080",
							"path": [
								"v1",
								"produtos",
								"00002"
							]
						}
					},
					"response": []
				},
				{
					"name": "Alterar Produtos",
					"request": {
						"method": "PUT",
						"header": [],
						"body": {
							"mode": "raw",
							"raw": "{\n    \"preco\": -13 \n}",
							"options": {
								"raw": {
									"language": "json"
								}
							}
						},
						"url": {
							"raw": "localhost:8080/v1/produtos/00002",
							"host": [
								"localhost"
							],
							"port": "8080",
							"path": [
								"v1",
								"produtos",
								"00002"
							]
						}
					},
					"response": []
				},
				{
					"name": "Remover Produtos",
					"request": {
						"method": "DELETE",
						"header": [],
						"url": {
							"raw": "localhost:8080/v1/produtos/00007",
							"host": [
								"localhost"
							],
							"port": "8080",
							"path": [
								"v1",
								"produtos",
								"00007"
							]
						}
					},
					"response": []
				}
			],
			"event": [
				{
					"listen": "prerequest",
					"script": {
						"type": "text/javascript",
						"exec": [
							""
						]
					}
				},
				{
					"listen": "test",
					"script": {
						"type": "text/javascript",
						"exec": [
							""
						]
					}
				}
			]
		}
	]
}